Comprehensive EDA - Titanic
…
Did the fate of other people in your group impact your survival? group here means those who were on the same ticket as you. Identifying family members based on last name were difficult, and I have decided to use ticket for simplicity. If this variable appears to be important after running feature_importance_ on models, we can return to do more work on it.

Who are your companions?

Companions <- titanic %>%
  group_by(Ticket) %>%
  summarize(n = n(),
            Died = sum(Survived==0, na.rm = T),
            Lived = sum(Survived==1, na.rm = T),
            Known_Fate = Died + Lived) %>% 
  arrange(desc(n))
Companions

## # A tibble: 929 x 5
##    Ticket           n  Died Lived Known_Fate
##    <chr>        <int> <int> <int>      <int>
##  1 CA. 2343        11     7     0          7
##  2 1601             8     2     5          7
##  3 CA 2144          8     6     0          6
##  4 3101295          7     6     0          6
##  5 347077           7     1     3          4
##  6 347082           7     7     0          7
##  7 PC 17608         7     0     2          2
##  8 S.O.C. 14879     7     5     0          5
##  9 113781           6     2     2          4
## 10 19950            6     2     2          4
## # ... with 919 more rows
…
